Verilog_Scripts/BELIEF_PROPAGATION_LARGE_BLOCK_LENGTH_IMPLEMENTATION/minimum_second_minimum_calculator.vcd
$date
	Wed Mar 29 18:09:25 2023
$end
$version
	Icarus Verilog
$end
$timescale
	1ps
$end
$scope module minimum_second_minimum_calculator_test_bench $end
$var wire 32 ! second_min [31:0] $end
$var wire 1 " reset_count $end
$var wire 6 # pos [5:0] $end
$var wire 32 $ min [31:0] $end
$var wire 1 % load_second_min $end
$var wire 1 & load_first_min $end
$var wire 1 ' initialize_second_min $end
$var wire 1 ( initialize_min $end
$var wire 1 ) done_row_processing $end
$var wire 1 * done_iterations $end
$var wire 1 + calculating_second_min $end
$var reg 1 , clk $end
$var reg 1280 - inputs [1279:0] $end
$var reg 1 . start_row_processing $end
$var reg 32 / temp [31:0] $end
$var integer 32 0 fptr [31:0] $end
$var integer 32 1 i [31:0] $end
$var integer 32 2 j [31:0] $end
$var integer 32 3 k [31:0] $end
$var integer 32 4 scan_file [31:0] $end
$scope module CONTROL_PATH_DUT $end
$var wire 1 , clk $end
$var wire 1 . start_row_processing $end
$var wire 1 * done_iterations $end
$var reg 1 + calculating_second_min $end
$var reg 1 ) done_row_processing $end
$var reg 1 ( initialize_min $end
$var reg 1 ' initialize_second_min $end
$var reg 1 & load_first_min $end
$var reg 1 % load_second_min $end
$var reg 3 5 next_state [2:0] $end
$var reg 3 6 present_state [2:0] $end
$var reg 1 " reset_count $end
$upscope $end
$scope module DATA_PATH_DUT $end
$var wire 1 + calculating_second_min $end
$var wire 1 , clk $end
$var wire 1 ( initialize_min $end
$var wire 1 ' initialize_second_min $end
$var wire 1280 7 input_wires [1279:0] $end
$var wire 1280 8 inputs [1279:0] $end
$var wire 1 & load_first_min $end
$var wire 1 9 load_pos $end
$var wire 1 % load_second_min $end
$var wire 32 : min [31:0] $end
$var wire 1 " reset_count $end
$var wire 32 ; second_min [31:0] $end
$var wire 32 < second_minimum_out [31:0] $end
$var wire 6 = pos [5:0] $end
$var wire 32 > minimum_out [31:0] $end
$var wire 1 ? l $end
$var wire 1 * done_iterations $end
$var wire 6 @ count [5:0] $end
$var wire 32 A comparator_out [31:0] $end
$var wire 32 B comparator_input_2 [31:0] $end
$var wire 32 C comparator_input_1 [31:0] $end
$scope module calculate_count $end
$var wire 1 , clk $end
$var wire 1 + condition_check $end
$var wire 1 " reset $end
$var wire 1 D reset_check $end
$var wire 6 E min_index [5:0] $end
$var reg 6 F count [5:0] $end
$var reg 6 G counter_input [5:0] $end
$upscope $end
$scope module generate_comparator_less_than_output $end
$var wire 1 ? l $end
$var wire 1 H t0 $end
$var wire 1 I t1 $end
$var wire 1 J mantissa_l $end
$var wire 32 K in2 [31:0] $end
$var wire 32 L in1 [31:0] $end
$var wire 1 M exponent_l $end
$var wire 1 N exponent_g $end
$scope module COMPARE_EXPONENTS $end
$var wire 8 O in1 [7:0] $end
$var wire 8 P in2 [7:0] $end
$var wire 1 M l $end
$var wire 1 N g $end
$upscope $end
$scope module COMPARE_MANTISSAS $end
$var wire 23 Q in1 [22:0] $end
$var wire 23 R in2 [22:0] $end
$var wire 1 J l $end
$upscope $end
$upscope $end
$scope module generate_comparator_output $end
$var wire 1 ? sel $end
$var wire 32 S in2 [31:0] $end
$var wire 32 T in1 [31:0] $end
$var reg 32 U out [31:0] $end
$upscope $end
$scope module generate_first_comparator_input $end
$var wire 1280 V inputs [1279:0] $end
$var wire 6 W sel [5:0] $end
$var reg 32 X out [31:0] $end
$var integer 32 Y i [31:0] $end
$var integer 32 Z j [31:0] $end
$upscope $end
$scope module generate_second_comparator_input $end
$var wire 1 + sel $end
$var wire 32 [ in2 [31:0] $end
$var wire 32 \ in1 [31:0] $end
$var reg 32 ] out [31:0] $end
$upscope $end
$scope module minimum_register $end
$var wire 1 , clk $end
$var wire 32 ^ in [31:0] $end
$var wire 1 ( initialize $end
$var wire 1 & load $end
$var reg 32 _ out [31:0] $end
$upscope $end
$scope module pos_register $end
$var wire 1 , clk $end
$var wire 6 ` in [5:0] $end
$var wire 1 9 load $end
$var reg 6 a out [5:0] $end
$upscope $end
$scope module second_minimum_register $end
$var wire 1 , clk $end
$var wire 32 b in [31:0] $end
$var wire 1 ' initialize $end
$var wire 1 % load $end
$var reg 32 c out [31:0] $end
$upscope $end
$upscope $end
$upscope $end
$enddefinitions $end
#0
$dumpvars
bx c
bx b
bx a
bx `
bx _
bx ^
bx ]
bx \
bx [
bx Z
b11111111111111111111111111111111 Y
bx X
bx W
b1000000100011001111110011001000010000011010101110110101101001110100000101001001100000001110010001000001100101111000010001110000001111110111011100011110110101010100000011000101010011010101001101000001001010010000011000110111010000010100011011111010000100000100000011011000010111010011100001000001101001001001010111011100010000001101000100010001100101100100000110000011000101110111000101000001001101010111000110010011010000010111110100000010000101110100000100101111001111000111100101000001100100101011100100100110001111101000101000111001010101110100000101110000000110100011100101000000000001100111010010000011010000010111011011100110010111100100000100100110011110100011010101000001100111110110100001111010010000000101110010111100010100110100000110011111000001100101001001000001011110111111110010010000010000001001111001001101101010000100000100101010010011101100000101000001011010011111001100111000010000011001100011100111000001010100000101110110001011001010100001000001011001001001011011000110010000001101111000011100111001010100000110100011111111001011000001000000110011011011010001110110010000010000011000000010101010000100000100100000000100001100110001000001101001110000100001111110010000010011011101110011011011000100000010111100111000101000100101000001001111011001100010100111 V
bx U
bx T
bx S
bx R
bx Q
bx P
bx O
xN
xM
bx L
bx K
xJ
xI
xH
bx G
bx F
bx E
xD
bx C
bx B
bx A
bx @
x?
bx >
bx =
bx <
bx ;
bx :
x9
b1000000100011001111110011001000010000011010101110110101101001110100000101001001100000001110010001000001100101111000010001110000001111110111011100011110110101010100000011000101010011010101001101000001001010010000011000110111010000010100011011111010000100000100000011011000010111010011100001000001101001001001010111011100010000001101000100010001100101100100000110000011000101110111000101000001001101010111000110010011010000010111110100000010000101110100000100101111001111000111100101000001100100101011100100100110001111101000101000111001010101110100000101110000000110100011100101000000000001100111010010000011010000010111011011100110010111100100000100100110011110100011010101000001100111110110100001111010010000000101110010111100010100110100000110011111000001100101001001000001011110111111110010010000010000001001111001001101101010000100000100101010010011101100000101000001011010011111001100111000010000011001100011100111000001010100000101110110001011001010100001000001011001001001011011000110010000001101111000011100111001010100000110100011111111001011000001000000110011011011010001110110010000010000011000000010101010000100000100100000000100001100110001000001101001110000100001111110010000010011011101110011011011000100000010111100111000101000100101000001001111011001100010100111 8
b1000000100011001111110011001000010000011010101110110101101001110100000101001001100000001110010001000001100101111000010001110000001111110111011100011110110101010100000011000101010011010101001101000001001010010000011000110111010000010100011011111010000100000100000011011000010111010011100001000001101001001001010111011100010000001101000100010001100101100100000110000011000101110111000101000001001101010111000110010011010000010111110100000010000101110100000100101111001111000111100101000001100100101011100100100110001111101000101000111001010101110100000101110000000110100011100101000000000001100111010010000011010000010111011011100110010111100100000100100110011110100011010101000001100111110110100001111010010000000101110010111100010100110100000110011111000001100101001001000001011110111111110010010000010000001001111001001101101010000100000100101010010011101100000101000001011010011111001100111000010000011001100011100111000001010100000101110110001011001010100001000001011001001001011011000110010000001101111000011100111001010100000110100011111111001011000001000000110011011011010001110110010000010000011000000010101010000100000100100000000100001100110001000001101001110000100001111110010000010011011101110011011011000100000010111100111000101000100101000001001111011001100010100111 7
bx 6
bx 5
b1 4
b11111111111111111111111111111111 3
b10011011111 2
b101000 1
b10000000000000000000000000000011 0
b1000000100011001111110011001000 /
x.
b1000000100011001111110011001000010000011010101110110101101001110100000101001001100000001110010001000001100101111000010001110000001111110111011100011110110101010100000011000101010011010101001101000001001010010000011000110111010000010100011011111010000100000100000011011000010111010011100001000001101001001001010111011100010000001101000100010001100101100100000110000011000101110111000101000001001101010111000110010011010000010111110100000010000101110100000100101111001111000111100101000001100100101011100100100110001111101000101000111001010101110100000101110000000110100011100101000000000001100111010010000011010000010111011011100110010111100100000100100110011110100011010101000001100111110110100001111010010000000101110010111100010100110100000110011111000001100101001001000001011110111111110010010000010000001001111001001101101010000100000100101010010011101100000101000001011010011111001100111000010000011001100011100111000001010100000101110110001011001010100001000001011001001001011011000110010000001101111000011100111001010100000110100011111111001011000001000000110011011011010001110110010000010000011000000010101010000100000100100000000100001100110001000001101001110000100001111110010000010011011101110011011011000100000010111100111000101000100101000001001111011001100010100111 -
0,
x+
x*
x)
x(
x'
x&
x%
bx $
bx #
x"
bx !
$end
#2000
1.
#4000
09
0D
0%
0&
0+
0'
0(
0"
0)
b0 5
#5000
b0 6
1,
#7000
b1000001001111011001100010100111 A
b1000001001111011001100010100111 U
b1000001001111011001100010100111 ^
b1000001001111011001100010100111 b
1I
1?
1H
1J
b1111011001100010100111 Q
1M
0N
b10000010 O
b11111111 P
b11111111111111111111111 R
b1 G
b1000001001111011001100010100111 C
b1000001001111011001100010100111 L
b1000001001111011001100010100111 S
b1000001001111011001100010100111 X
b11111111111111111111111111111111 Z
b11111111111111111111111111111111 Y
b11111111111111111111111111111111 B
b11111111111111111111111111111111 K
b11111111111111111111111111111111 T
b11111111111111111111111111111111 ]
0*
b0 @
b0 F
b0 W
b0 `
b11111111111111111111111111111111 $
b11111111111111111111111111111111 :
b11111111111111111111111111111111 >
b11111111111111111111111111111111 \
b11111111111111111111111111111111 _
19
1"
1(
1&
b1 5
#10000
0,
#12000
0.
#15000
b1 6
b0 #
b0 =
b0 E
b0 a
1,
#17000
0"
0(
b10 5
#20000
0,
#25000
b1111001110001010001001 Q
b10000001 O
1M
b10000010 P
1J
b1111011001100010100111 R
b1000000101111001110001010001001 A
b1000000101111001110001010001001 U
b1000000101111001110001010001001 ^
b1000000101111001110001010001001 b
b10 G
b1000000101111001110001010001001 C
b1000000101111001110001010001001 L
b1000000101111001110001010001001 S
b1000000101111001110001010001001 X
b11111 Z
b11111111111111111111111111111111 Y
b1000001001111011001100010100111 B
b1000001001111011001100010100111 K
b1000001001111011001100010100111 T
b1000001001111011001100010100111 ]
b10 6
b1 @
b1 F
b1 W
b1 `
b1000001001111011001100010100111 $
b1000001001111011001100010100111 :
b1000001001111011001100010100111 >
b1000001001111011001100010100111 \
b1000001001111011001100010100111 _
1,
#30000
0,
#35000
09
0?
0I
0H
b1101110111001101101100 Q
1N
b10000010 O
0M
b10000001 P
1J
b1111001110001010001001 R
b1000000101111001110001010001001 A
b1000000101111001110001010001001 U
b1000000101111001110001010001001 ^
b1000000101111001110001010001001 b
b11 G
b1000001001101110111001101101100 C
b1000001001101110111001101101100 L
b1000001001101110111001101101100 S
b1000001001101110111001101101100 X
b111111 Z
b11111111111111111111111111111111 Y
b1000000101111001110001010001001 B
b1000000101111001110001010001001 K
b1000000101111001110001010001001 T
b1000000101111001110001010001001 ]
b1 #
b1 =
b1 E
b1 a
b10 @
b10 F
b10 W
b10 `
b1000000101111001110001010001001 $
b1000000101111001110001010001001 :
b1000000101111001110001010001001 >
b1000000101111001110001010001001 \
b1000000101111001110001010001001 _
1,
#40000
0,
#45000
b1001110000100001111110 Q
b10000011 O
b100 G
b1000001101001110000100001111110 C
b1000001101001110000100001111110 L
b1000001101001110000100001111110 S
b1000001101001110000100001111110 X
b1011111 Z
b11111111111111111111111111111111 Y
b11 @
b11 F
b11 W
b11 `
1,
#50000
0,
#55000
b1000000001000011001100 Q
b10000010 O
b101 G
b1000001001000000001000011001100 C
b1000001001000000001000011001100 L
b1000001001000000001000011001100 S
b1000001001000000001000011001100 X
b1111111 Z
b11111111111111111111111111111111 Y
b100 @
b100 F
b100 W
b100 `
1,
#60000
0,
#65000
b1100000001010101000 Q
b110 G
b1000001000001100000001010101000 C
b1000001000001100000001010101000 L
b1000001000001100000001010101000 S
b1000001000001100000001010101000 X
b10011111 Z
b11111111111111111111111111111111 Y
b101 @
b101 F
b101 W
b101 `
1,
#70000
0,
#75000
1H
0J
b10011011011010001110110 Q
0N
b10000001 O
b111 G
b1000000110011011011010001110110 C
b1000000110011011011010001110110 L
b1000000110011011011010001110110 S
b1000000110011011011010001110110 X
b10111111 Z
b11111111111111111111111111111111 Y
b110 @
b110 F
b110 W
b110 `
1,
#80000
0,
#85000
0H
1J
b1000111111110010110000 Q
1N
b10000011 O
b1000 G
b1000001101000111111110010110000 C
b1000001101000111111110010110000 L
b1000001101000111111110010110000 S
b1000001101000111111110010110000 X
b11011111 Z
b11111111111111111111111111111111 Y
b111 @
b111 F
b111 W
b111 `
1,
#90000
0,
#95000
1H
0J
b10111100001110011100101 Q
0N
b10000001 O
b1001 G
b1000000110111100001110011100101 C
b1000000110111100001110011100101 L
b1000000110111100001110011100101 S
b1000000110111100001110011100101 X
b11111111 Z
b11111111111111111111111111111111 Y
b1000 @
b1000 F
b1000 W
b1000 `
1,
#100000
0,
#105000
0H
b11001001001011011000110 Q
1N
b10000010 O
b1010 G
b1000001011001001001011011000110 C
b1000001011001001001011011000110 L
b1000001011001001001011011000110 S
b1000001011001001001011011000110 X
b100011111 Z
b11111111111111111111111111111111 Y
b1001 @
b1001 F
b1001 W
b1001 `
1,
#110000
0,
#115000
b11101100010110010101000 Q
b1011 G
b1000001011101100010110010101000 C
b1000001011101100010110010101000 L
b1000001011101100010110010101000 S
b1000001011101100010110010101000 X
b100111111 Z
b11111111111111111111111111111111 Y
b1010 @
b1010 F
b1010 W
b1010 `
1,
#120000
0,
#125000
1J
b110001110011100000101 Q
b10000011 O
b1100 G
b1000001100110001110011100000101 C
b1000001100110001110011100000101 L
b1000001100110001110011100000101 S
b1000001100110001110011100000101 X
b101011111 Z
b11111111111111111111111111111111 Y
b1011 @
b1011 F
b1011 W
b1011 `
1,
#130000
0,
#135000
0J
b11010011111001100111000 Q
b10000010 O
b1101 G
b1000001011010011111001100111000 C
b1000001011010011111001100111000 L
b1000001011010011111001100111000 S
b1000001011010011111001100111000 X
b101111111 Z
b11111111111111111111111111111111 Y
b1100 @
b1100 F
b1100 W
b1100 `
1,
#140000
0,
#145000
1J
b1010100100111011000001 Q
b1110 G
b1000001001010100100111011000001 C
b1000001001010100100111011000001 L
b1000001001010100100111011000001 S
b1000001001010100100111011000001 X
b110011111 Z
b11111111111111111111111111111111 Y
b1101 @
b1101 F
b1101 W
b1101 `
1,
#150000
0,
#155000
b1000000100111100100110110101000 A
b1000000100111100100110110101000 U
b1000000100111100100110110101000 ^
b1000000100111100100110110101000 b
19
1?
1I
1H
b111100100110110101000 Q
0N
b10000001 O
b1111 G
b1000000100111100100110110101000 C
b1000000100111100100110110101000 L
b1000000100111100100110110101000 S
b1000000100111100100110110101000 X
b110111111 Z
b11111111111111111111111111111111 Y
b1110 @
b1110 F
b1110 W
b1110 `
1,
#160000
0,
#165000
09
0?
0H
0I
b11110111111110010010000 Q
1N
b10000010 O
0J
b111100100110110101000 R
b1000000100111100100110110101000 A
b1000000100111100100110110101000 U
b1000000100111100100110110101000 ^
b1000000100111100100110110101000 b
b10000 G
b1000001011110111111110010010000 C
b1000001011110111111110010010000 L
b1000001011110111111110010010000 S
b1000001011110111111110010010000 X
b111011111 Z
b11111111111111111111111111111111 Y
b1000000100111100100110110101000 B
b1000000100111100100110110101000 K
b1000000100111100100110110101000 T
b1000000100111100100110110101000 ]
b1110 #
b1110 =
b1110 E
b1110 a
b1111 @
b1111 F
b1111 W
b1111 `
b1000000100111100100110110101000 $
b1000000100111100100110110101000 :
b1000000100111100100110110101000 >
b1000000100111100100110110101000 \
b1000000100111100100110110101000 _
1,
#170000
0,
#175000
b111110000011001010010 Q
b10000011 O
b10001 G
b1000001100111110000011001010010 C
b1000001100111110000011001010010 L
b1000001100111110000011001010010 S
b1000001100111110000011001010010 X
b111111111 Z
b11111111111111111111111111111111 Y
b10000 @
b10000 F
b10000 W
b10000 `
1,
#180000
0,
#185000
b1000000010111001011110001010011 A
b1000000010111001011110001010011 U
b1000000010111001011110001010011 ^
b1000000010111001011110001010011 b
19
1?
1H
b10111001011110001010011 Q
1M
0N
b10000000 O
b10010 G
b1000000010111001011110001010011 C
b1000000010111001011110001010011 L
b1000000010111001011110001010011 S
b1000000010111001011110001010011 X
b1000011111 Z
b11111111111111111111111111111111 Y
b10001 @
b10001 F
b10001 W
b10001 `
1,
#190000
0,
#195000
09
0H
0?
1J
b111110110100001111010 Q
1N
b10000011 O
0M
b10000000 P
b10111001011110001010011 R
b1000000010111001011110001010011 A
b1000000010111001011110001010011 U
b1000000010111001011110001010011 ^
b1000000010111001011110001010011 b
b10011 G
b1000001100111110110100001111010 C
b1000001100111110110100001111010 L
b1000001100111110110100001111010 S
b1000001100111110110100001111010 X
b1000111111 Z
b11111111111111111111111111111111 Y
b1000000010111001011110001010011 B
b1000000010111001011110001010011 K
b1000000010111001011110001010011 T
b1000000010111001011110001010011 ]
b10001 #
b10001 =
b10001 E
b10001 a
b10010 @
b10010 F
b10010 W
b10010 `
b1000000010111001011110001010011 $
b1000000010111001011110001010011 :
b1000000010111001011110001010011 >
b1000000010111001011110001010011 \
b1000000010111001011110001010011 _
1,
#200000
0,
#205000
b1001100111101000110101 Q
b10000010 O
b10100 G
b1000001001001100111101000110101 C
b1000001001001100111101000110101 L
b1000001001001100111101000110101 S
b1000001001001100111101000110101 X
b1001011111 Z
b11111111111111111111111111111111 Y
b10011 @
b10011 F
b10011 W
b10011 `
1,
#210000
0,
#215000
0J
b11101101110011001011110 Q
b10101 G
b1000001011101101110011001011110 C
b1000001011101101110011001011110 L
b1000001011101101110011001011110 S
b1000001011101101110011001011110 X
b1001111111 Z
b11111111111111111111111111111111 Y
b10100 @
b10100 F
b10100 W
b10100 `
1,
#220000
0,
#225000
b1000000000001100111010010000011 A
b1000000000001100111010010000011 U
b1000000000001100111010010000011 ^
b1000000000001100111010010000011 b
19
1?
1I
1H
1J
b1100111010010000011 Q
0N
b10000000 O
b10110 G
b1000000000001100111010010000011 C
b1000000000001100111010010000011 L
b1000000000001100111010010000011 S
b1000000000001100111010010000011 X
b1010011111 Z
b11111111111111111111111111111111 Y
b10101 @
b10101 F
b10101 W
b10101 `
1,
#230000
0,
#235000
09
0?
0H
0I
b11100000001101000111001 Q
1N
b10000010 O
0J
b1100111010010000011 R
b1000000000001100111010010000011 A
b1000000000001100111010010000011 U
b1000000000001100111010010000011 ^
b1000000000001100111010010000011 b
b10111 G
b1000001011100000001101000111001 C
b1000001011100000001101000111001 L
b1000001011100000001101000111001 S
b1000001011100000001101000111001 X
b1010111111 Z
b11111111111111111111111111111111 Y
b1000000000001100111010010000011 B
b1000000000001100111010010000011 K
b1000000000001100111010010000011 T
b1000000000001100111010010000011 ]
b10101 #
b10101 =
b10101 E
b10101 a
b10110 @
b10110 F
b10110 W
b10110 `
b1000000000001100111010010000011 $
b1000000000001100111010010000011 :
b1000000000001100111010010000011 >
b1000000000001100111010010000011 \
b1000000000001100111010010000011 _
1,
#240000
0,
#245000
b111110100010100011100101010111 A
b111110100010100011100101010111 U
b111110100010100011100101010111 ^
b111110100010100011100101010111 b
19
1?
1H
b10100011100101010111 Q
1M
0N
b1111101 O
b11000 G
b111110100010100011100101010111 C
b111110100010100011100101010111 L
b111110100010100011100101010111 S
b111110100010100011100101010111 X
b1011011111 Z
b11111111111111111111111111111111 Y
b10111 @
b10111 F
b10111 W
b10111 `
1,
#250000
0,
#255000
09
0H
0?
b100101011100100100110 Q
1N
b10000011 O
0M
b1111101 P
b10100011100101010111 R
b111110100010100011100101010111 A
b111110100010100011100101010111 U
b111110100010100011100101010111 ^
b111110100010100011100101010111 b
b11001 G
b1000001100100101011100100100110 C
b1000001100100101011100100100110 L
b1000001100100101011100100100110 S
b1000001100100101011100100100110 X
b1011111111 Z
b11111111111111111111111111111111 Y
b111110100010100011100101010111 B
b111110100010100011100101010111 K
b111110100010100011100101010111 T
b111110100010100011100101010111 ]
b10111 #
b10111 =
b10111 E
b10111 a
b11000 @
b11000 F
b11000 W
b11000 `
b111110100010100011100101010111 $
b111110100010100011100101010111 :
b111110100010100011100101010111 >
b111110100010100011100101010111 \
b111110100010100011100101010111 _
1,
#260000
0,
#265000
b1011110011110001111001 Q
b10000010 O
b11010 G
b1000001001011110011110001111001 C
b1000001001011110011110001111001 L
b1000001001011110011110001111001 S
b1000001001011110011110001111001 X
b1100011111 Z
b11111111111111111111111111111111 Y
b11001 @
b11001 F
b11001 W
b11001 `
1,
#270000
0,
#275000
b11111010000001000010111 Q
b11011 G
b1000001011111010000001000010111 C
b1000001011111010000001000010111 L
b1000001011111010000001000010111 S
b1000001011111010000001000010111 X
b1100111111 Z
b11111111111111111111111111111111 Y
b11010 @
b11010 F
b11010 W
b11010 `
1,
#280000
0,
#285000
b1101010111000110010011 Q
b11100 G
b1000001001101010111000110010011 C
b1000001001101010111000110010011 L
b1000001001101010111000110010011 S
b1000001001101010111000110010011 X
b1101011111 Z
b11111111111111111111111111111111 Y
b11011 @
b11011 F
b11011 W
b11011 `
1,
#290000
0,
#295000
1J
b110001011101110001 Q
b10000011 O
b11101 G
b1000001100000110001011101110001 C
b1000001100000110001011101110001 L
b1000001100000110001011101110001 S
b1000001100000110001011101110001 X
b1101111111 Z
b11111111111111111111111111111111 Y
b11100 @
b11100 F
b11100 W
b11100 `
1,
#300000
0,
#305000
0J
b10100010001000110010110 Q
b10000001 O
b11110 G
b1000000110100010001000110010110 C
b1000000110100010001000110010110 L
b1000000110100010001000110010110 S
b1000000110100010001000110010110 X
b1110011111 Z
b11111111111111111111111111111111 Y
b11101 @
b11101 F
b11101 W
b11101 `
1,
#310000
0,
#315000
b1001001001010111011100 Q
b10000011 O
b11111 G
b1000001101001001001010111011100 C
b1000001101001001001010111011100 L
b1000001101001001001010111011100 S
b1000001101001001001010111011100 X
b1110111111 Z
b11111111111111111111111111111111 Y
b11110 @
b11110 F
b11110 W
b11110 `
1,
#320000
0,
#325000
b10110000101110100111000 Q
b10000001 O
b100000 G
b1000000110110000101110100111000 C
b1000000110110000101110100111000 L
b1000000110110000101110100111000 S
b1000000110110000101110100111000 X
b1111011111 Z
b11111111111111111111111111111111 Y
b11111 @
b11111 F
b11111 W
b11111 `
1,
#330000
0,
#335000
b10001101111101000010000 Q
b10000010 O
b100001 G
b1000001010001101111101000010000 C
b1000001010001101111101000010000 L
b1000001010001101111101000010000 S
b1000001010001101111101000010000 X
b1111111111 Z
b11111111111111111111111111111111 Y
b100000 @
b100000 F
b100000 W
b100000 `
1,
#340000
0,
#345000
b1010010000011000110111 Q
b100010 G
b1000001001010010000011000110111 C
b1000001001010010000011000110111 L
b1000001001010010000011000110111 S
b1000001001010010000011000110111 X
b10000011111 Z
b11111111111111111111111111111111 Y
b100001 @
b100001 F
b100001 W
b100001 `
1,
#350000
0,
#355000
b10001010100110101010011 Q
b10000001 O
b100011 G
b1000000110001010100110101010011 C
b1000000110001010100110101010011 L
b1000000110001010100110101010011 S
b1000000110001010100110101010011 X
b10000111111 Z
b11111111111111111111111111111111 Y
b100010 @
b100010 F
b100010 W
b100010 `
1,
#360000
0,
#365000
b11101110001111011010101 Q
b1111110 O
b100100 G
b111111011101110001111011010101 C
b111111011101110001111011010101 L
b111111011101110001111011010101 S
b111111011101110001111011010101 X
b10001011111 Z
b11111111111111111111111111111111 Y
b100011 @
b100011 F
b100011 W
b100011 `
1,
#370000
0,
#375000
b101111000010001110000 Q
b10000011 O
b100101 G
b1000001100101111000010001110000 C
b1000001100101111000010001110000 L
b1000001100101111000010001110000 S
b1000001100101111000010001110000 X
b10001111111 Z
b11111111111111111111111111111111 Y
b100100 @
b100100 F
b100100 W
b100100 `
1,
#380000
0,
#385000
b10010011000000011100100 Q
b10000010 O
b100110 G
b1000001010010011000000011100100 C
b1000001010010011000000011100100 L
b1000001010010011000000011100100 S
b1000001010010011000000011100100 X
b10010011111 Z
b11111111111111111111111111111111 Y
b100101 @
b100101 F
b100101 W
b100101 `
1,
#390000
0,
#395000
b1010111011010110100111 Q
b10000011 O
b100111 G
b1000001101010111011010110100111 C
b1000001101010111011010110100111 L
b1000001101010111011010110100111 S
b1000001101010111011010110100111 X
b10010111111 Z
b11111111111111111111111111111111 Y
b100110 @
b100110 F
b100110 W
b100110 `
1,
#400000
0,
#405000
b11001111110011001000 Q
b10000001 O
b101000 G
b1000000100011001111110011001000 C
b1000000100011001111110011001000 L
b1000000100011001111110011001000 S
b1000000100011001111110011001000 X
b10011011111 Z
b11111111111111111111111111111111 Y
b100111 @
b100111 F
b100111 W
b100111 `
1,
#410000
0,
#415000
x9
xI
x?
xH
xJ
bx Q
xM
xN
bx O
b101001 G
bx C
bx L
bx S
bx X
b10011111111 Z
b11111111111111111111111111111111 Y
1*
b101000 @
b101000 F
b101000 W
b101000 `
1,
#417000
b1000001001111011001100010100111 A
b1000001001111011001100010100111 U
b1000001001111011001100010100111 ^
b1000001001111011001100010100111 b
1I
1?
1H
1J
b1111011001100010100111 Q
1M
0N
b10000010 O
b1 G
b1000001001111011001100010100111 C
b1000001001111011001100010100111 L
b1000001001111011001100010100111 S
b1000001001111011001100010100111 X
b11111111111111111111111111111111 Z
b11111111111111111111111111111111 Y
0*
b0 @
b0 F
b0 W
b0 `
b11111111111111111111111111111111 !
b11111111111111111111111111111111 ;
b11111111111111111111111111111111 <
b11111111111111111111111111111111 [
b11111111111111111111111111111111 c
b11111111 P
b11111111111111111111111 R
b11111111111111111111111111111111 B
b11111111111111111111111111111111 K
b11111111111111111111111111111111 T
b11111111111111111111111111111111 ]
09
1"
1+
1'
1%
0&
b11 5
#420000
0,
#425000
b11 6
1,
#427000
0"
0'
b100 5
#430000
0,
#435000
b1111001110001010001001 Q
b10000001 O
1M
b10000010 P
1J
b1111011001100010100111 R
b1000000101111001110001010001001 A
b1000000101111001110001010001001 U
b1000000101111001110001010001001 ^
b1000000101111001110001010001001 b
b10 G
b1000000101111001110001010001001 C
b1000000101111001110001010001001 L
b1000000101111001110001010001001 S
b1000000101111001110001010001001 X
b11111 Z
b11111111111111111111111111111111 Y
b1000001001111011001100010100111 B
b1000001001111011001100010100111 K
b1000001001111011001100010100111 T
b1000001001111011001100010100111 ]
b100 6
b1 @
b1 F
b1 W
b1 `
b1000001001111011001100010100111 !
b1000001001111011001100010100111 ;
b1000001001111011001100010100111 <
b1000001001111011001100010100111 [
b1000001001111011001100010100111 c
1,
#440000
0,
#445000
0?
0I
0H
b1101110111001101101100 Q
1N
b10000010 O
0M
b10000001 P
1J
b1111001110001010001001 R
b1000000101111001110001010001001 A
b1000000101111001110001010001001 U
b1000000101111001110001010001001 ^
b1000000101111001110001010001001 b
b11 G
b1000001001101110111001101101100 C
b1000001001101110111001101101100 L
b1000001001101110111001101101100 S
b1000001001101110111001101101100 X
b111111 Z
b11111111111111111111111111111111 Y
b1000000101111001110001010001001 B
b1000000101111001110001010001001 K
b1000000101111001110001010001001 T
b1000000101111001110001010001001 ]
b10 @
b10 F
b10 W
b10 `
b1000000101111001110001010001001 !
b1000000101111001110001010001001 ;
b1000000101111001110001010001001 <
b1000000101111001110001010001001 [
b1000000101111001110001010001001 c
1,
#450000
0,
#455000
b1001110000100001111110 Q
b10000011 O
b100 G
b1000001101001110000100001111110 C
b1000001101001110000100001111110 L
b1000001101001110000100001111110 S
b1000001101001110000100001111110 X
b1011111 Z
b11111111111111111111111111111111 Y
b11 @
b11 F
b11 W
b11 `
1,
#460000
0,
#465000
b1000000001000011001100 Q
b10000010 O
b101 G
b1000001001000000001000011001100 C
b1000001001000000001000011001100 L
b1000001001000000001000011001100 S
b1000001001000000001000011001100 X
b1111111 Z
b11111111111111111111111111111111 Y
b100 @
b100 F
b100 W
b100 `
1,
#470000
0,
#475000
b1100000001010101000 Q
b110 G
b1000001000001100000001010101000 C
b1000001000001100000001010101000 L
b1000001000001100000001010101000 S
b1000001000001100000001010101000 X
b10011111 Z
b11111111111111111111111111111111 Y
b101 @
b101 F
b101 W
b101 `
1,
#480000
0,
#485000
1H
0J
b10011011011010001110110 Q
0N
b10000001 O
b111 G
b1000000110011011011010001110110 C
b1000000110011011011010001110110 L
b1000000110011011011010001110110 S
b1000000110011011011010001110110 X
b10111111 Z
b11111111111111111111111111111111 Y
b110 @
b110 F
b110 W
b110 `
1,
#490000
0,
#495000
0H
1J
b1000111111110010110000 Q
1N
b10000011 O
b1000 G
b1000001101000111111110010110000 C
b1000001101000111111110010110000 L
b1000001101000111111110010110000 S
b1000001101000111111110010110000 X
b11011111 Z
b11111111111111111111111111111111 Y
b111 @
b111 F
b111 W
b111 `
1,
#500000
0,
#505000
1H
0J
b10111100001110011100101 Q
0N
b10000001 O
b1001 G
b1000000110111100001110011100101 C
b1000000110111100001110011100101 L
b1000000110111100001110011100101 S
b1000000110111100001110011100101 X
b11111111 Z
b11111111111111111111111111111111 Y
b1000 @
b1000 F
b1000 W
b1000 `
1,
#510000
0,
#515000
0H
b11001001001011011000110 Q
1N
b10000010 O
b1010 G
b1000001011001001001011011000110 C
b1000001011001001001011011000110 L
b1000001011001001001011011000110 S
b1000001011001001001011011000110 X
b100011111 Z
b11111111111111111111111111111111 Y
b1001 @
b1001 F
b1001 W
b1001 `
1,
#520000
0,
#525000
b11101100010110010101000 Q
b1011 G
b1000001011101100010110010101000 C
b1000001011101100010110010101000 L
b1000001011101100010110010101000 S
b1000001011101100010110010101000 X
b100111111 Z
b11111111111111111111111111111111 Y
b1010 @
b1010 F
b1010 W
b1010 `
1,
#530000
0,
#535000
1J
b110001110011100000101 Q
b10000011 O
b1100 G
b1000001100110001110011100000101 C
b1000001100110001110011100000101 L
b1000001100110001110011100000101 S
b1000001100110001110011100000101 X
b101011111 Z
b11111111111111111111111111111111 Y
b1011 @
b1011 F
b1011 W
b1011 `
1,
#540000
0,
