Verilog_Scripts/Simple_LDPC_Belief_Propagation_Implementation/COLUMN_SUM_CALCULATOR.vcd
$date
	Tue Mar  7 12:58:25 2023
$end
$version
	Icarus Verilog
$end
$timescale
	1ps
$end
$scope module COLUMN_SUM_ADDER_TEST_BENCH $end
$var wire 32 ! sum [31:0] $end
$var wire 1 " load_sum $end
$var wire 1 # done_iterations $end
$var wire 1 $ done $end
$var wire 1 % clr $end
$var reg 1 & clk $end
$var reg 32 ' r1 [31:0] $end
$var reg 32 ( r2 [31:0] $end
$var reg 32 ) r3 [31:0] $end
$var reg 1 * start $end
$scope module control_path_column_sum_calculation $end
$var wire 1 & clk $end
$var wire 1 * start $end
$var wire 1 # done_iterations $end
$var reg 1 % clr $end
$var reg 1 $ done $end
$var reg 1 " load_sum $end
$var reg 2 + next_state [1:0] $end
$var reg 2 , present_state [1:0] $end
$upscope $end
$scope module data_path_column_sum_calculation $end
$var wire 1 & clk $end
$var wire 1 % clr $end
$var wire 1 " load_sum $end
$var wire 32 - r1 [31:0] $end
$var wire 32 . r2 [31:0] $end
$var wire 32 / r3 [31:0] $end
$var wire 32 0 sum_out [31:0] $end
$var wire 32 1 sum_in [31:0] $end
$var wire 1 # done_iterations $end
$var wire 2 2 count [1:0] $end
$var wire 32 3 adder_input [31:0] $end
$scope module generate_column_index $end
$var wire 1 & clk $end
$var wire 1 % clr $end
$var reg 2 4 count [1:0] $end
$upscope $end
$scope module generate_current_sum $end
$var wire 1 5 sign_of_smaller_exponent $end
$var wire 1 6 sign_of_larger_exponent $end
$var wire 24 7 positive_shifted_mantissa [23:0] $end
$var wire 8 8 positive_shifted_exponent [7:0] $end
$var wire 32 9 out [31:0] $end
$var wire 24 : negative_shifted_mantissa [23:0] $end
$var wire 8 ; negative_shifted_exponent [7:0] $end
$var wire 5 < negative_exponent_shift [4:0] $end
$var wire 23 = mantissa_with_smaller_exponent [22:0] $end
$var wire 23 > mantissa_with_larger_exponent [22:0] $end
$var wire 24 ? mantissa_sum [23:0] $end
$var wire 23 @ mantissa2 [22:0] $end
$var wire 23 A mantissa1 [22:0] $end
$var wire 8 B larger_exponent [7:0] $end
$var wire 1 C l $end
$var wire 1 D is_result_zero $end
$var wire 24 E input_mantissa_2 [23:0] $end
$var wire 24 F input_mantissa_1 [23:0] $end
$var wire 32 G in2 [31:0] $end
$var wire 32 H in1 [31:0] $end
$var wire 24 I final_mantissa [23:0] $end
$var wire 8 J final_exponent [7:0] $end
$var wire 8 K exponent2 [7:0] $end
$var wire 8 L exponent1 [7:0] $end
$var wire 8 M diff [7:0] $end
$var wire 1 N carry_out $end
$scope module find_number_of_leading_zeros_in_mantissa_sum $end
$var wire 5 O priority_encoder_output [4:0] $end
$var wire 24 P in [23:0] $end
$var wire 1 D all_zeros $end
$var reg 5 Q out [4:0] $end
$var reg 5 R storage_register [4:0] $end
$scope module find_position_of_first_1 $end
$var wire 24 S in [23:0] $end
$var reg 5 T out [4:0] $end
$upscope $end
$upscope $end
$scope module generate_added_mantissa_and_sign $end
$var wire 24 U input2_magnitude [23:0] $end
$var wire 1 V is_subtraction $end
$var wire 24 W result_magnitude_without_carry [23:0] $end
$var wire 1 6 input2_sign $end
$var wire 1 5 input1_sign $end
$var wire 24 X input1_magnitude [23:0] $end
$var wire 1 N carry_out $end
$var reg 25 Y result_magnitude [24:0] $end
$var reg 1 Z result_sign $end
$upscope $end
$scope module generate_exponent_difference $end
$var wire 8 [ exp1 [7:0] $end
$var wire 8 \ exp2 [7:0] $end
$var wire 1 C l $end
$var reg 8 ] diff [7:0] $end
$upscope $end
$scope module generate_final_exponent $end
$var wire 1 N sel $end
$var wire 8 ^ in2 [7:0] $end
$var wire 8 _ in1 [7:0] $end
$var reg 8 ` out [7:0] $end
$upscope $end
$scope module generate_final_mantissa $end
$var wire 1 N sel $end
$var wire 24 a in2 [23:0] $end
$var wire 24 b in1 [23:0] $end
$var reg 24 c out [23:0] $end
$upscope $end
$scope module generate_input_mantissa_1 $end
$var wire 8 d shift_factor [7:0] $end
$var wire 24 e out [23:0] $end
$var wire 23 f in [22:0] $end
$var wire 24 g before_shift [23:0] $end
$upscope $end
$scope module generate_negative_shifted_exponent $end
$var wire 5 h decr_value [4:0] $end
$var wire 8 i in [7:0] $end
$var reg 8 j out [7:0] $end
$upscope $end
$scope module generate_negative_shifted_mantissa $end
$var wire 24 k in [23:0] $end
$var wire 5 l shift_factor [4:0] $end
$var reg 24 m out [23:0] $end
$upscope $end
$scope module generate_positive_shifted_exponent $end
$var wire 8 n in [7:0] $end
$var reg 8 o out [7:0] $end
$upscope $end
$scope module generate_positive_shifted_mantissa $end
$var wire 24 p in [23:0] $end
$var wire 24 q out [23:0] $end
$upscope $end
$scope module select_larger_exponent $end
$var wire 8 r in1 [7:0] $end
$var wire 8 s in2 [7:0] $end
$var wire 1 C sel $end
$var reg 8 t out [7:0] $end
$upscope $end
$scope module select_mantissa_with_larger_exponent $end
$var wire 23 u in1 [22:0] $end
$var wire 23 v in2 [22:0] $end
$var wire 1 C sel $end
$var reg 23 w out [22:0] $end
$upscope $end
$scope module select_mantissa_with_smaller_exponent $end
$var wire 23 x in1 [22:0] $end
$var wire 23 y in2 [22:0] $end
$var wire 1 C sel $end
$var reg 23 z out [22:0] $end
$upscope $end
$scope module select_sign_of_larger_exponent $end
$var wire 1 { in1 $end
$var wire 1 | in2 $end
$var wire 1 C sel $end
$var reg 1 6 out $end
$upscope $end
$scope module select_sign_of_smaller_exponent $end
$var wire 1 } in1 $end
$var wire 1 ~ in2 $end
$var wire 1 C sel $end
$var reg 1 5 out $end
$upscope $end
$upscope $end
$scope module select_adder_input $end
$var wire 32 !" in1 [31:0] $end
$var wire 32 "" in2 [31:0] $end
$var wire 32 #" in3 [31:0] $end
$var wire 2 $" sel [1:0] $end
$var reg 32 %" out [31:0] $end
$upscope $end
$scope module store_sum_value $end
$var wire 1 & clk $end
$var wire 1 % clr $end
$var wire 32 &" in [31:0] $end
$var wire 1 " load $end
$var reg 32 '" out [31:0] $end
$upscope $end
$upscope $end
$upscope $end
$enddefinitions $end
#0
$dumpvars
bx '"
b1xxxxxxxxxxxxxxxxxxxxxxxxxxxxxxx &"
b0 %"
bx $"
b111111000110011001100110011010 #"
b10111111000110011001100110011010 ""
b10111111010011001100110011001101 !"
0~
x}
x|
0{
bx z
b0 y
bx x
b0 w
bx v
b0 u
b0 t
bx s
b0 r
b0xxxxxxxxxxxxxxxxxxxxxxx q
bx p
b1 o
b0 n
bx m
bx l
bx k
bx j
b0 i
bx h
b1xxxxxxxxxxxxxxxxxxxxxxx g
bx f
bx e
bx d
bx c
bx b
b0xxxxxxxxxxxxxxxxxxxxxxx a
bx `
bx _
b1 ^
bx ]
bx \
b0 [
1Z
bx Y
bx X
bx W
xV
b100000000000000000000000 U
bx T
bx S
bx R
bx Q
bx P
bx O
xN
bx M
b0 L
bx K
bx J
bx I
b0 H
bx G
bx F
b100000000000000000000000 E
xD
xC
b0 B
b0 A
bx @
bx ?
b0 >
bx =
bx <
bx ;
bx :
b1xxxxxxxxxxxxxxxxxxxxxxxxxxxxxxx 9
b1 8
b0xxxxxxxxxxxxxxxxxxxxxxx 7
06
x5
bx 4
b0 3
bx 2
b1xxxxxxxxxxxxxxxxxxxxxxxxxxxxxxx 1
bx 0
b111111000110011001100110011010 /
b10111111000110011001100110011010 .
b10111111010011001100110011001101 -
bx ,
bx +
x*
b111111000110011001100110011010 )
b10111111000110011001100110011010 (
b10111111010011001100110011001101 '
0&
x%
x$
x#
x"
bx !
$end
#2000
1*
#4000
0"
0$
0%
b0 +
#5000
b0 ,
1&
#7000
b1111110 ;
b1111110 _
b1111110 j
b110011001100110011001101 :
b110011001100110011001101 b
b110011001100110011001101 m
0D
b0 <
b0 Q
b0 h
b0 l
b11000 R
b1111110 J
b1111110 `
b110011001100110011001101 I
b110011001100110011001101 c
b11001100110011001100110 7
b11001100110011001100110 a
b11001100110011001100110 q
b11000 O
b11000 T
b1111111 8
b1111111 ^
b1111111 o
0N
b110011001100110011001101 ?
b110011001100110011001101 P
b110011001100110011001101 S
b110011001100110011001101 W
b110011001100110011001101 k
b110011001100110011001101 p
16
b110011001100110011001101 E
b110011001100110011001101 U
b10011001100110011001101 >
b10011001100110011001101 w
b1111110 B
b1111110 i
b1111110 n
b1111110 t
1V
b10111111010011001100110011001101 1
b10111111010011001100110011001101 9
b10111111010011001100110011001101 &"
1Z
b110011001100110011001101 Y
1{
1~
b10011001100110011001101 A
b10011001100110011001101 u
b10011001100110011001101 y
b1111110 L
b1111110 [
b1111110 r
b0 F
b0 X
b0 e
b1111110 M
b1111110 ]
b1111110 d
b100000000000000000000000 g
b0 =
b0 f
b0 z
05
b10111111010011001100110011001101 3
b10111111010011001100110011001101 H
b10111111010011001100110011001101 %"
0|
0}
b0 @
b0 v
b0 x
0C
b0 K
b0 \
b0 s
0#
b0 2
b0 4
b0 $"
b0 !
b0 0
b0 G
b0 '"
1%
b1 +
#10000
0&
#12000
0*
#15000
b1 ,
1&
#17000
1"
0%
b10 +
#20000
0&
#25000
b1111101 ;
b1111101 _
b1111101 j
b10111111101100110011001100110011 1
b10111111101100110011001100110011 9
b10111111101100110011001100110011 &"
b1111111 J
b1111111 `
0D
b1 <
b1 Q
b1 h
b1 l
b1100110011001100110011 I
b1100110011001100110011 c
1N
b1100110011001100110011 7
b1100110011001100110011 a
b1100110011001100110011 q
b10111 O
b10111 T
b110011001100110011001110 :
b110011001100110011001110 b
b110011001100110011001110 m
b11001100110011001100111 ?
b11001100110011001100111 P
b11001100110011001100111 S
b11001100110011001100111 W
b11001100110011001100111 k
b11001100110011001100111 p
b100110011001100110011010 E
b100110011001100110011010 U
b110011001100110011010 >
b110011001100110011010 w
0V
b1011001100110011001100111 Y
b110011001100110011010 A
b110011001100110011010 u
b110011001100110011010 y
15
b110011001100110011001101 g
b10011001100110011001101 =
b10011001100110011001101 f
b10011001100110011001101 z
b110011001100110011001101 F
b110011001100110011001101 X
b110011001100110011001101 e
b0 M
b0 ]
b0 d
b10111111000110011001100110011010 3
b10111111000110011001100110011010 H
b10111111000110011001100110011010 %"
1|
1}
b10011001100110011001101 @
b10011001100110011001101 v
b10011001100110011001101 x
b1111110 K
b1111110 \
b1111110 s
b10 ,
b1 2
b1 4
b1 $"
b10111111010011001100110011001101 !
b10111111010011001100110011001101 0
b10111111010011001100110011001101 G
b10111111010011001100110011001101 '"
1&
#30000
0&
#35000
0D
b1 <
b1 Q
b1 h
b1 l
b110011001100110011001100 I
b110011001100110011001100 c
0N
b1100110011001100110011 7
b1100110011001100110011 a
b1100110011001100110011 q
b10111 O
b10111 T
b110011001100110011001100 :
b110011001100110011001100 b
b110011001100110011001100 m
b10111111010011001100110011001100 1
b10111111010011001100110011001100 9
b10111111010011001100110011001100 &"
b1111110 J
b1111110 `
b11001100110011001100110 ?
b11001100110011001100110 P
b11001100110011001100110 S
b11001100110011001100110 W
b11001100110011001100110 k
b11001100110011001100110 p
b1111110 ;
b1111110 _
b1111110 j
b10000000 8
b10000000 ^
b10000000 o
1V
b11001100110011001100110 Y
b1111111 B
b1111111 i
b1111111 n
b1111111 t
b1 M
b1 ]
b1 d
b101100110011001100110011 E
b101100110011001100110011 U
b1100110011001100110011 >
b1100110011001100110011 w
b10011001100110011001101 F
b10011001100110011001101 X
b10011001100110011001101 e
b100110011001100110011010 g
b110011001100110011010 =
b110011001100110011010 f
b110011001100110011010 z
05
0{
0~
b1100110011001100110011 @
b1100110011001100110011 v
b1100110011001100110011 x
1C
b1111111 K
b1111111 \
b1111111 s
b111111000110011001100110011010 3
b111111000110011001100110011010 H
b111111000110011001100110011010 %"
b10111111101100110011001100110011 !
b10111111101100110011001100110011 0
b10111111101100110011001100110011 G
b10111111101100110011001100110011 '"
b10 2
b10 4
b10 $"
1&
#40000
0&
#45000
b0 <
b0 Q
b0 h
b0 l
b110011001100110011001100 I
b110011001100110011001100 c
b11001100110011001100110 7
b11001100110011001100110 a
b11001100110011001100110 q
b11000 O
b11000 T
b110011001100110011001100 :
b110011001100110011001100 b
b110011001100110011001100 m
b10111111010011001100110011001100 1
b10111111010011001100110011001100 9
b10111111010011001100110011001100 &"
b1111110 J
b1111110 `
b110011001100110011001100 ?
b110011001100110011001100 P
b110011001100110011001100 S
b110011001100110011001100 W
b110011001100110011001100 k
b110011001100110011001100 p
b1111110 ;
b1111110 _
b1111110 j
b1111111 8
b1111111 ^
b1111111 o
b110011001100110011001100 Y
b0 A
b0 u
b0 y
b0 L
b0 [
b0 r
b1111110 M
b1111110 ]
b1111110 d
b1111110 B
b1111110 i
b1111110 n
b1111110 t
b110011001100110011001100 E
b110011001100110011001100 U
b10011001100110011001100 >
b10011001100110011001100 w
b0 F
b0 X
b0 e
b100000000000000000000000 g
b0 =
b0 f
b0 z
16
05
b0 3
b0 H
b0 %"
b10011001100110011001100 @
b10011001100110011001100 v
b10011001100110011001100 x
1C
b1111110 K
b1111110 \
b1111110 s
1#
b11 2
b11 4
b11 $"
b10111111010011001100110011001100 !
b10111111010011001100110011001100 0
b10111111010011001100110011001100 G
b10111111010011001100110011001100 '"
1&
#47000
1$
b11 +
#50000
0&
#55000
b1111110 ;
b1111110 _
b1111110 j
b10111111110011001100110011001100 1
b10111111110011001100110011001100 9
b10111111110011001100110011001100 &"
b1111111 J
b1111111 `
b0 <
b0 Q
b0 h
b0 l
b10011001100110011001100 I
b10011001100110011001100 c
1N
b10011001100110011001100 7
b10011001100110011001100 a
b10011001100110011001100 q
b11000 O
b11000 T
b100110011001100110011001 :
b100110011001100110011001 b
b100110011001100110011001 m
b100110011001100110011001 ?
b100110011001100110011001 P
b100110011001100110011001 S
b100110011001100110011001 W
b100110011001100110011001 k
b100110011001100110011001 p
0V
b1100110011001100110011001 Y
b110011001100110011001100 F
b110011001100110011001100 X
b110011001100110011001100 e
b0 M
b0 ]
b0 d
b110011001100110011001101 E
b110011001100110011001101 U
b10011001100110011001101 >
b10011001100110011001101 w
b110011001100110011001100 g
b10011001100110011001100 =
b10011001100110011001100 f
b10011001100110011001100 z
15
1{
1~
b10011001100110011001101 A
b10011001100110011001101 u
b10011001100110011001101 y
0C
b1111110 L
b1111110 [
b1111110 r
b10111111010011001100110011001101 3
b10111111010011001100110011001101 H
b10111111010011001100110011001101 %"
b11 ,
0#
b0 2
b0 4
b0 $"
1&
#57000
0"
0$
b0 +
#60000
0&
#65000
b1111101 ;
b1111101 _
b1111101 j
b10111111101100110011001100110011 1
b10111111101100110011001100110011 9
b10111111101100110011001100110011 &"
b1 <
b1 Q
b1 h
b1 l
b1100110011001100110011 I
b1100110011001100110011 c
b1100110011001100110011 7
b1100110011001100110011 a
b1100110011001100110011 q
b10111 O
b10111 T
b110011001100110011001100 :
b110011001100110011001100 b
b110011001100110011001100 m
b11001100110011001100110 ?
b11001100110011001100110 P
b11001100110011001100110 S
b11001100110011001100110 W
b11001100110011001100110 k
b11001100110011001100110 p
b1011001100110011001100110 Y
b100110011001100110011010 E
b100110011001100110011010 U
b110011001100110011010 >
b110011001100110011010 w
b110011001100110011010 A
b110011001100110011010 u
b110011001100110011010 y
b10111111000110011001100110011010 3
b10111111000110011001100110011010 H
b10111111000110011001100110011010 %"
b0 ,
b1 2
b1 4
b1 $"
1&
#70000
0&
#75000
b1111100 ;
b1111100 _
b1111100 j
b10 <
b10 Q
b10 h
b10 l
b10111110010011001100110011001000 1
b10111110010011001100110011001000 9
b10111110010011001100110011001000 &"
b1111100 J
b1111100 `
b110011001100110011001000 I
b110011001100110011001000 c
b110011001100110011001 7
b110011001100110011001 a
b110011001100110011001 q
b10110 O
b10110 T
b110011001100110011001000 :
b110011001100110011001000 b
b110011001100110011001000 m
0N
b1100110011001100110010 ?
b1100110011001100110010 P
b1100110011001100110010 S
b1100110011001100110010 W
b1100110011001100110010 k
b1100110011001100110010 p
b1100110011001100110010 Y
1V
06
0{
0~
b111111000110011001100110011010 3
b111111000110011001100110011010 H
b111111000110011001100110011010 %"
b10 2
b10 4
b10 $"
1&
#80000
0&
#85000
b1111110 J
b1111110 `
b1111110 ;
b1111110 _
b1111110 j
b10111111010011001100110011001100 1
b10111111010011001100110011001100 9
b10111111010011001100110011001100 &"
b0 <
b0 Q
b0 h
b0 l
b110011001100110011001100 I
b110011001100110011001100 c
b11001100110011001100110 7
b11001100110011001100110 a
b11001100110011001100110 q
b11000 O
b11000 T
b110011001100110011001100 :
b110011001100110011001100 b
b110011001100110011001100 m
b110011001100110011001100 ?
b110011001100110011001100 P
b110011001100110011001100 S
b110011001100110011001100 W
b110011001100110011001100 k
b110011001100110011001100 p
b110011001100110011001100 Y
b1111110 M
b1111110 ]
b1111110 d
b110011001100110011001100 E
b110011001100110011001100 U
b10011001100110011001100 >
b10011001100110011001100 w
b0 F
b0 X
b0 e
b100000000000000000000000 g
b0 =
b0 f
b0 z
16
05
b0 A
b0 u
b0 y
1C
b0 L
b0 [
b0 r
b0 3
b0 H
b0 %"
1#
b11 2
b11 4
b11 $"
1&
#90000
0&
#95000
b1111110 ;
b1111110 _
b1111110 j
b10111111110011001100110011001100 1
b10111111110011001100110011001100 9
b10111111110011001100110011001100 &"
b1111111 J
b1111111 `
b0 <
b0 Q
b0 h
b0 l
b10011001100110011001100 I
b10011001100110011001100 c
1N
b10011001100110011001100 7
b10011001100110011001100 a
b10011001100110011001100 q
b11000 O
b11000 T
b100110011001100110011001 :
b100110011001100110011001 b
b100110011001100110011001 m
b100110011001100110011001 ?
b100110011001100110011001 P
b100110011001100110011001 S
b100110011001100110011001 W
b100110011001100110011001 k
b100110011001100110011001 p
0V
b1100110011001100110011001 Y
b110011001100110011001100 F
b110011001100110011001100 X
b110011001100110011001100 e
b0 M
b0 ]
b0 d
b110011001100110011001101 E
b110011001100110011001101 U
b10011001100110011001101 >
b10011001100110011001101 w
b110011001100110011001100 g
b10011001100110011001100 =
b10011001100110011001100 f
b10011001100110011001100 z
15
1{
1~
b10011001100110011001101 A
b10011001100110011001101 u
b10011001100110011001101 y
0C
b1111110 L
b1111110 [
b1111110 r
b10111111010011001100110011001101 3
b10111111010011001100110011001101 H
b10111111010011001100110011001101 %"
0#
b0 2
b0 4
b0 $"
1&
#100000
0&
#105000
b1111101 ;
b1111101 _
b1111101 j
b10111111101100110011001100110011 1
b10111111101100110011001100110011 9
b10111111101100110011001100110011 &"
b1 <
b1 Q
b1 h
b1 l
b1100110011001100110011 I
b1100110011001100110011 c
b1100110011001100110011 7
b1100110011001100110011 a
b1100110011001100110011 q
b10111 O
b10111 T
b110011001100110011001100 :
b110011001100110011001100 b
b110011001100110011001100 m
b11001100110011001100110 ?
b11001100110011001100110 P
b11001100110011001100110 S
b11001100110011001100110 W
b11001100110011001100110 k
b11001100110011001100110 p
b1011001100110011001100110 Y
b100110011001100110011010 E
b100110011001100110011010 U
b110011001100110011010 >
b110011001100110011010 w
b110011001100110011010 A
b110011001100110011010 u
b110011001100110011010 y
b10111111000110011001100110011010 3
b10111111000110011001100110011010 H
b10111111000110011001100110011010 %"
b1 2
b1 4
b1 $"
1&
