Verilog_Scripts/Simple_LDPC_Belief_Propagation_Implementation/COLUMN_SUM_CALCULATOR.vcd
$date
	Sun Feb 12 15:22:02 2023
$end
$version
	Icarus Verilog
$end
$timescale
	1ps
$end
$scope module COLUMN_SUM_ADDER_TEST_BENCH $end
$var wire 32 ! sum [31:0] $end
$var wire 1 " done_iterations $end
$var wire 1 # done $end
$var wire 1 $ clr $end
$var reg 1 % clk $end
$var reg 32 & r1 [31:0] $end
$var reg 32 ' r2 [31:0] $end
$var reg 32 ( r3 [31:0] $end
$var reg 1 ) start $end
$scope module control_path_column_sum_calculation $end
$var wire 1 % clk $end
$var wire 1 ) start $end
$var wire 1 " done_iterations $end
$var reg 1 $ clr $end
$var reg 1 # done $end
$var reg 2 * next_state [1:0] $end
$var reg 2 + present_state [1:0] $end
$upscope $end
$scope module data_path_column_sum_calculation $end
$var wire 1 % clk $end
$var wire 1 $ clr $end
$var wire 32 , r1 [31:0] $end
$var wire 32 - r2 [31:0] $end
$var wire 32 . r3 [31:0] $end
$var wire 32 / sum_out [31:0] $end
$var wire 32 0 sum_in [31:0] $end
$var wire 1 " done_iterations $end
$var wire 2 1 count [1:0] $end
$var wire 32 2 adder_input [31:0] $end
$scope module generate_column_index $end
$var wire 1 % clk $end
$var wire 1 $ clr $end
$var reg 2 3 count [1:0] $end
$upscope $end
$scope module generate_current_sum $end
$var wire 1 4 sign_of_smaller_exponent $end
$var wire 1 5 sign_of_larger_exponent $end
$var wire 24 6 positive_shifted_mantissa [23:0] $end
$var wire 8 7 positive_shifted_exponent [7:0] $end
$var wire 32 8 out [31:0] $end
$var wire 24 9 negative_shifted_mantissa [23:0] $end
$var wire 8 : negative_shifted_exponent [7:0] $end
$var wire 5 ; negative_exponent_shift [4:0] $end
$var wire 23 < mantissa_with_smaller_exponent [22:0] $end
$var wire 23 = mantissa_with_larger_exponent [22:0] $end
$var wire 24 > mantissa_sum [23:0] $end
$var wire 23 ? mantissa2 [22:0] $end
$var wire 23 @ mantissa1 [22:0] $end
$var wire 8 A larger_exponent [7:0] $end
$var wire 1 B l $end
$var wire 1 C is_result_zero $end
$var wire 24 D input_mantissa_2 [23:0] $end
$var wire 24 E input_mantissa_1 [23:0] $end
$var wire 32 F in2 [31:0] $end
$var wire 32 G in1 [31:0] $end
$var wire 24 H final_mantissa [23:0] $end
$var wire 8 I final_exponent [7:0] $end
$var wire 8 J exponent2 [7:0] $end
$var wire 8 K exponent1 [7:0] $end
$var wire 8 L diff [7:0] $end
$var wire 1 M carry_out $end
$scope module find_number_of_leading_zeros_in_mantissa_sum $end
$var wire 5 N priority_encoder_output [4:0] $end
$var wire 24 O in [23:0] $end
$var wire 1 C all_zeros $end
$var reg 5 P out [4:0] $end
$var reg 5 Q storage_register [4:0] $end
$scope module find_position_of_first_1 $end
$var wire 24 R in [23:0] $end
$var reg 5 S out [4:0] $end
$upscope $end
$upscope $end
$scope module generate_added_mantissa_and_sign $end
$var wire 24 T input2_magnitude [23:0] $end
$var wire 1 U is_subtraction $end
$var wire 24 V result_magnitude_without_carry [23:0] $end
$var wire 1 5 input2_sign $end
$var wire 1 4 input1_sign $end
$var wire 24 W input1_magnitude [23:0] $end
$var wire 1 M carry_out $end
$var reg 25 X result_magnitude [24:0] $end
$var reg 1 Y result_sign $end
$upscope $end
$scope module generate_exponent_difference $end
$var wire 8 Z exp1 [7:0] $end
$var wire 8 [ exp2 [7:0] $end
$var wire 1 B l $end
$var reg 8 \ diff [7:0] $end
$upscope $end
$scope module generate_final_exponent $end
$var wire 1 M sel $end
$var wire 8 ] in2 [7:0] $end
$var wire 8 ^ in1 [7:0] $end
$var reg 8 _ out [7:0] $end
$upscope $end
$scope module generate_final_mantissa $end
$var wire 1 M sel $end
$var wire 24 ` in2 [23:0] $end
$var wire 24 a in1 [23:0] $end
$var reg 24 b out [23:0] $end
$upscope $end
$scope module generate_input_mantissa_1 $end
$var wire 8 c shift_factor [7:0] $end
$var wire 24 d out [23:0] $end
$var wire 23 e in [22:0] $end
$var wire 24 f before_shift [23:0] $end
$upscope $end
$scope module generate_negative_shifted_exponent $end
$var wire 5 g decr_value [4:0] $end
$var wire 8 h in [7:0] $end
$var reg 8 i out [7:0] $end
$upscope $end
$scope module generate_negative_shifted_mantissa $end
$var wire 24 j in [23:0] $end
$var wire 5 k shift_factor [4:0] $end
$var reg 24 l out [23:0] $end
$upscope $end
$scope module generate_positive_shifted_exponent $end
$var wire 8 m in [7:0] $end
$var reg 8 n out [7:0] $end
$upscope $end
$scope module generate_positive_shifted_mantissa $end
$var wire 24 o in [23:0] $end
$var wire 24 p out [23:0] $end
$upscope $end
$scope module select_larger_exponent $end
$var wire 8 q in1 [7:0] $end
$var wire 8 r in2 [7:0] $end
$var wire 1 B sel $end
$var reg 8 s out [7:0] $end
$upscope $end
$scope module select_mantissa_with_larger_exponent $end
$var wire 23 t in1 [22:0] $end
$var wire 23 u in2 [22:0] $end
$var wire 1 B sel $end
$var reg 23 v out [22:0] $end
$upscope $end
$scope module select_mantissa_with_smaller_exponent $end
$var wire 23 w in1 [22:0] $end
$var wire 23 x in2 [22:0] $end
$var wire 1 B sel $end
$var reg 23 y out [22:0] $end
$upscope $end
$scope module select_sign_of_larger_exponent $end
$var wire 1 z in1 $end
$var wire 1 { in2 $end
$var wire 1 B sel $end
$var reg 1 5 out $end
$upscope $end
$scope module select_sign_of_smaller_exponent $end
$var wire 1 | in1 $end
$var wire 1 } in2 $end
$var wire 1 B sel $end
$var reg 1 4 out $end
$upscope $end
$upscope $end
$scope module select_adder_input $end
$var wire 32 ~ in1 [31:0] $end
$var wire 32 !" in2 [31:0] $end
$var wire 32 "" in3 [31:0] $end
$var wire 2 #" sel [1:0] $end
$var reg 32 $" out [31:0] $end
$upscope $end
$scope module store_sum_value $end
$var wire 1 % clk $end
$var wire 1 $ clr $end
$var wire 32 %" in [31:0] $end
$var reg 32 &" out [31:0] $end
$upscope $end
$upscope $end
$upscope $end
$enddefinitions $end
#0
$dumpvars
bx &"
b0xxxxxxxxxxxxxxxxxxxxxxxxxxxxxxx %"
b0 $"
bx #"
b1000000111111001100110011001101 ""
b1000000000110011001100110011010 !"
b111111100110011001100110011010 ~
0}
x|
x{
0z
bx y
b0 x
bx w
b0 v
bx u
b0 t
b0 s
bx r
b0 q
b0xxxxxxxxxxxxxxxxxxxxxxx p
bx o
b1 n
b0 m
bx l
bx k
bx j
bx i
b0 h
bx g
b1xxxxxxxxxxxxxxxxxxxxxxx f
bx e
bx d
bx c
bx b
bx a
b0xxxxxxxxxxxxxxxxxxxxxxx `
bx _
bx ^
b1 ]
bx \
bx [
b0 Z
0Y
bx X
bx W
bx V
xU
b100000000000000000000000 T
bx S
bx R
bx Q
bx P
bx O
bx N
xM
bx L
b0 K
bx J
bx I
bx H
b0 G
bx F
bx E
b100000000000000000000000 D
xC
xB
b0 A
b0 @
bx ?
bx >
b0 =
bx <
bx ;
bx :
bx 9
b0xxxxxxxxxxxxxxxxxxxxxxxxxxxxxxx 8
b1 7
b0xxxxxxxxxxxxxxxxxxxxxxx 6
05
x4
bx 3
b0 2
bx 1
b0xxxxxxxxxxxxxxxxxxxxxxxxxxxxxxx 0
bx /
b1000000111111001100110011001101 .
b1000000000110011001100110011010 -
b111111100110011001100110011010 ,
bx +
bx *
x)
b1000000111111001100110011001101 (
b1000000000110011001100110011010 '
b111111100110011001100110011010 &
0%
x$
x#
x"
bx !
$end
#2000
1)
#4000
0#
0$
b0 *
#5000
0U
04
0{
0|
b0 +
b0xxxxxxxxxxxxxxxxxxxxxxxxxxxxxxx !
b0xxxxxxxxxxxxxxxxxxxxxxxxxxxxxxx /
b0xxxxxxxxxxxxxxxxxxxxxxxxxxxxxxx F
b0xxxxxxxxxxxxxxxxxxxxxxxxxxxxxxx &"
1%
#7000
b1111111 :
b1111111 ^
b1111111 i
b100110011001100110011010 9
b100110011001100110011010 a
b100110011001100110011010 l
0C
b0 ;
b0 P
b0 g
b0 k
b11000 Q
b111111100110011001100110011010 0
b111111100110011001100110011010 8
b111111100110011001100110011010 %"
b1111111 I
b1111111 _
b100110011001100110011010 H
b100110011001100110011010 b
b10011001100110011001101 6
b10011001100110011001101 `
b10011001100110011001101 p
b11000 N
b11000 S
b10000000 7
b10000000 ]
b10000000 n
0M
b100110011001100110011010 >
b100110011001100110011010 O
b100110011001100110011010 R
b100110011001100110011010 V
b100110011001100110011010 j
b100110011001100110011010 o
b100110011001100110011010 D
b100110011001100110011010 T
b110011001100110011010 =
b110011001100110011010 v
b1111111 A
b1111111 h
b1111111 m
b1111111 s
b100110011001100110011010 X
b110011001100110011010 @
b110011001100110011010 t
b110011001100110011010 x
b1111111 K
b1111111 Z
b1111111 q
b0 E
b0 W
b0 d
b1111111 L
b1111111 \
b1111111 c
b100000000000000000000000 f
b0 <
b0 e
b0 y
b111111100110011001100110011010 2
b111111100110011001100110011010 G
b111111100110011001100110011010 $"
b0 ?
b0 u
b0 w
0B
b0 J
b0 [
b0 r
0"
b0 1
b0 3
b0 #"
b0 !
b0 /
b0 F
b0 &"
1$
b1 *
#10000
0%
#12000
0)
#15000
b1 +
1%
#17000
0$
b10 *
#20000
0%
#25000
b0 ;
b0 P
b0 g
b0 k
b1000000011001100110011001100111 0
b1000000011001100110011001100111 8
b1000000011001100110011001100111 %"
b10000000 I
b10000000 _
b111001100110011001100111 H
b111001100110011001100111 b
b11100110011001100110011 6
b11100110011001100110011 `
b11100110011001100110011 p
b11000 N
b11000 S
b111001100110011001100111 9
b111001100110011001100111 a
b111001100110011001100111 l
b10000000 :
b10000000 ^
b10000000 i
b10000001 7
b10000001 ]
b10000001 n
0M
b111001100110011001100111 >
b111001100110011001100111 O
b111001100110011001100111 R
b111001100110011001100111 V
b111001100110011001100111 j
b111001100110011001100111 o
b10000000 A
b10000000 h
b10000000 m
b10000000 s
b111001100110011001100111 X
b10000000 K
b10000000 Z
b10000000 q
b100110011001100110011010 f
b110011001100110011010 <
b110011001100110011010 e
b110011001100110011010 y
b10011001100110011001101 E
b10011001100110011001101 W
b10011001100110011001101 d
b1 L
b1 \
b1 c
b1000000000110011001100110011010 2
b1000000000110011001100110011010 G
b1000000000110011001100110011010 $"
b110011001100110011010 ?
b110011001100110011010 u
b110011001100110011010 w
b1111111 J
b1111111 [
b1111111 r
b10 +
b1 1
b1 3
b1 #"
b111111100110011001100110011010 !
b111111100110011001100110011010 /
b111111100110011001100110011010 F
b111111100110011001100110011010 &"
1%
#30000
0%
#35000
b1 ;
b1 P
b1 g
b1 k
b1110000000000000000000 H
b1110000000000000000000 b
b1110000000000000000000 6
b1110000000000000000000 `
b1110000000000000000000 p
b10111 N
b10111 S
b111000000000000000000000 9
b111000000000000000000000 a
b111000000000000000000000 l
1M
b11100000000000000000000 >
b11100000000000000000000 O
b11100000000000000000000 R
b11100000000000000000000 V
b11100000000000000000000 j
b11100000000000000000000 o
b1000001001110000000000000000000 0
b1000001001110000000000000000000 8
b1000001001110000000000000000000 %"
b10000010 I
b10000010 _
b1011100000000000000000000 X
b10000000 :
b10000000 ^
b10000000 i
b10000010 7
b10000010 ]
b10000010 n
b111111001100110011001101 D
b111111001100110011001101 T
b11111001100110011001101 =
b11111001100110011001101 v
b11100110011001100110011 E
b11100110011001100110011 W
b11100110011001100110011 d
b111001100110011001100111 f
b11001100110011001100111 <
b11001100110011001100111 e
b11001100110011001100111 y
b10000001 A
b10000001 h
b10000001 m
b10000001 s
b11111001100110011001101 @
b11111001100110011001101 t
b11111001100110011001101 x
b10000001 K
b10000001 Z
b10000001 q
b11001100110011001100111 ?
b11001100110011001100111 u
b11001100110011001100111 w
b10000000 J
b10000000 [
b10000000 r
b1000000111111001100110011001101 2
b1000000111111001100110011001101 G
b1000000111111001100110011001101 $"
b1000000011001100110011001100111 !
b1000000011001100110011001100111 /
b1000000011001100110011001100111 F
b1000000011001100110011001100111 &"
b10 1
b10 3
b10 #"
1%
#40000
0%
#45000
b0 ;
b0 P
b0 g
b0 k
b101110000000000000000000 H
b101110000000000000000000 b
0M
b10111000000000000000000 6
b10111000000000000000000 `
b10111000000000000000000 p
b11000 N
b11000 S
b101110000000000000000000 9
b101110000000000000000000 a
b101110000000000000000000 l
b1000001001110000000000000000000 0
b1000001001110000000000000000000 8
b1000001001110000000000000000000 %"
b10000010 I
b10000010 _
b101110000000000000000000 >
b101110000000000000000000 O
b101110000000000000000000 R
b101110000000000000000000 V
b101110000000000000000000 j
b101110000000000000000000 o
b10000010 L
b10000010 \
b10000010 c
b10000010 :
b10000010 ^
b10000010 i
b10000011 7
b10000011 ]
b10000011 n
b101110000000000000000000 X
b0 @
b0 t
b0 x
b0 K
b0 Z
b0 q
b10000010 A
b10000010 h
b10000010 m
b10000010 s
b101110000000000000000000 D
b101110000000000000000000 T
b1110000000000000000000 =
b1110000000000000000000 v
b0 E
b0 W
b0 d
b100000000000000000000000 f
b0 <
b0 e
b0 y
b0 2
b0 G
b0 $"
b1110000000000000000000 ?
b1110000000000000000000 u
b1110000000000000000000 w
1B
b10000010 J
b10000010 [
b10000010 r
1"
b11 1
b11 3
b11 #"
b1000001001110000000000000000000 !
b1000001001110000000000000000000 /
b1000001001110000000000000000000 F
b1000001001110000000000000000000 &"
1%
#47000
1#
b11 *
#50000
0%
#55000
b1000001010010110011001100110011 0
b1000001010010110011001100110011 8
b1000001010010110011001100110011 %"
b110010110011001100110011 H
b110010110011001100110011 b
b11001011001100110011001 6
b11001011001100110011001 `
b11001011001100110011001 p
b110010110011001100110011 9
b110010110011001100110011 a
b110010110011001100110011 l
b110010110011001100110011 >
b110010110011001100110011 O
b110010110011001100110011 R
b110010110011001100110011 V
b110010110011001100110011 j
b110010110011001100110011 o
b110010110011001100110011 X
b100110011001100110011010 f
b110011001100110011010 <
b110011001100110011010 e
b110011001100110011010 y
b100110011001100110011 E
b100110011001100110011 W
b100110011001100110011 d
b11 L
b11 \
b11 c
b110011001100110011010 @
b110011001100110011010 t
b110011001100110011010 x
b1111111 K
b1111111 Z
b1111111 q
b111111100110011001100110011010 2
b111111100110011001100110011010 G
b111111100110011001100110011010 $"
b11 +
0"
b0 1
b0 3
b0 #"
1%
#57000
0#
b0 *
#60000
0%
#65000
b1000001011100011001100110011001 0
b1000001011100011001100110011001 8
b1000001011100011001100110011001 %"
b111100011001100110011001 H
b111100011001100110011001 b
b11110001100110011001100 6
b11110001100110011001100 `
b11110001100110011001100 p
b111100011001100110011001 9
b111100011001100110011001 a
b111100011001100110011001 l
b111100011001100110011001 >
b111100011001100110011001 O
b111100011001100110011001 R
b111100011001100110011001 V
b111100011001100110011001 j
b111100011001100110011001 o
b1001100110011001100110 E
b1001100110011001100110 W
b1001100110011001100110 d
b10 L
b10 \
b10 c
b111100011001100110011001 X
b10000000 K
b10000000 Z
b10000000 q
b110010110011001100110011 D
b110010110011001100110011 T
b10010110011001100110011 =
b10010110011001100110011 v
b1000000000110011001100110011010 2
b1000000000110011001100110011010 G
b1000000000110011001100110011010 $"
b10010110011001100110011 ?
b10010110011001100110011 u
b10010110011001100110011 w
b0 +
b1 1
b1 3
b1 #"
b1000001010010110011001100110011 !
b1000001010010110011001100110011 /
b1000001010010110011001100110011 F
b1000001010010110011001100110011 &"
1%
#70000
0%
#75000
b10000001 :
b10000001 ^
b10000001 i
b1 ;
b1 P
b1 g
b1 k
b1000001101101111111111111111111 0
b1000001101101111111111111111111 8
b1000001101101111111111111111111 %"
b10000011 I
b10000011 _
b1101111111111111111111 H
b1101111111111111111111 b
b1101111111111111111111 6
b1101111111111111111111 `
b1101111111111111111111 p
b10111 N
b10111 S
b110111111111111111111110 9
b110111111111111111111110 a
b110111111111111111111110 l
1M
b11011111111111111111111 >
b11011111111111111111111 O
b11011111111111111111111 R
b11011111111111111111111 V
b11011111111111111111111 j
b11011111111111111111111 o
b1011011111111111111111111 X
b1 L
b1 \
b1 c
b111100011001100110011001 D
b111100011001100110011001 T
b11100011001100110011001 =
b11100011001100110011001 v
b11111100110011001100110 E
b11111100110011001100110 W
b11111100110011001100110 d
b111111001100110011001101 f
b11111001100110011001101 <
b11111001100110011001101 e
b11111001100110011001101 y
b11111001100110011001101 @
b11111001100110011001101 t
b11111001100110011001101 x
b10000001 K
b10000001 Z
b10000001 q
b11100011001100110011001 ?
b11100011001100110011001 u
b11100011001100110011001 w
b1000000111111001100110011001101 2
b1000000111111001100110011001101 G
b1000000111111001100110011001101 $"
b1000001011100011001100110011001 !
b1000001011100011001100110011001 /
b1000001011100011001100110011001 F
b1000001011100011001100110011001 &"
b10 1
b10 3
b10 #"
1%
#80000
0%
#85000
b0 ;
b0 P
b0 g
b0 k
b101101111111111111111111 H
b101101111111111111111111 b
b10110111111111111111111 6
b10110111111111111111111 `
b10110111111111111111111 p
b11000 N
b11000 S
b101101111111111111111111 9
b101101111111111111111111 a
b101101111111111111111111 l
0M
b101101111111111111111111 >
b101101111111111111111111 O
b101101111111111111111111 R
b101101111111111111111111 V
b101101111111111111111111 j
b101101111111111111111111 o
b1000001101101111111111111111111 0
b1000001101101111111111111111111 8
b1000001101101111111111111111111 %"
b10000011 I
b10000011 _
b100000000000000000000000 f
b0 <
b0 e
b0 y
b101101111111111111111111 X
b10000011 :
b10000011 ^
b10000011 i
b10000100 7
b10000100 ]
b10000100 n
b0 @
b0 t
b0 x
b0 K
b0 Z
b0 q
b101101111111111111111111 D
b101101111111111111111111 T
b1101111111111111111111 =
b1101111111111111111111 v
b0 E
b0 W
b0 d
b10000011 L
b10000011 \
b10000011 c
b10000011 A
b10000011 h
b10000011 m
b10000011 s
b0 2
b0 G
b0 $"
b1101111111111111111111 ?
b1101111111111111111111 u
b1101111111111111111111 w
b10000011 J
b10000011 [
b10000011 r
1"
b11 1
b11 3
b11 #"
b1000001101101111111111111111111 !
b1000001101101111111111111111111 /
b1000001101101111111111111111111 F
b1000001101101111111111111111111 &"
1%
#90000
0%
#95000
b1000001110000011001100110011000 0
b1000001110000011001100110011000 8
b1000001110000011001100110011000 %"
b110000011001100110011000 H
b110000011001100110011000 b
b11000001100110011001100 6
b11000001100110011001100 `
b11000001100110011001100 p
b110000011001100110011000 9
b110000011001100110011000 a
b110000011001100110011000 l
b110000011001100110011000 >
b110000011001100110011000 O
b110000011001100110011000 R
b110000011001100110011000 V
b110000011001100110011000 j
b110000011001100110011000 o
b110000011001100110011000 X
b100110011001100110011010 f
b110011001100110011010 <
b110011001100110011010 e
b110011001100110011010 y
b10011001100110011001 E
b10011001100110011001 W
b10011001100110011001 d
b100 L
b100 \
b100 c
b110011001100110011010 @
b110011001100110011010 t
b110011001100110011010 x
b1111111 K
b1111111 Z
b1111111 q
b111111100110011001100110011010 2
b111111100110011001100110011010 G
b111111100110011001100110011010 $"
0"
b0 1
b0 3
b0 #"
1%
#100000
0%
#105000
b1000001110101001100110011001011 0
b1000001110101001100110011001011 8
b1000001110101001100110011001011 %"
b110101001100110011001011 H
b110101001100110011001011 b
b11010100110011001100101 6
b11010100110011001100101 `
b11010100110011001100101 p
b110101001100110011001011 9
b110101001100110011001011 a
b110101001100110011001011 l
b110101001100110011001011 >
b110101001100110011001011 O
b110101001100110011001011 R
b110101001100110011001011 V
b110101001100110011001011 j
b110101001100110011001011 o
b100110011001100110011 E
b100110011001100110011 W
b100110011001100110011 d
b11 L
b11 \
b11 c
b110101001100110011001011 X
b10000000 K
b10000000 Z
b10000000 q
b110000011001100110011000 D
b110000011001100110011000 T
b10000011001100110011000 =
b10000011001100110011000 v
b1000000000110011001100110011010 2
b1000000000110011001100110011010 G
b1000000000110011001100110011010 $"
b10000011001100110011000 ?
b10000011001100110011000 u
b10000011001100110011000 w
b1 1
b1 3
b1 #"
b1000001110000011001100110011000 !
b1000001110000011001100110011000 /
b1000001110000011001100110011000 F
b1000001110000011001100110011000 &"
1%
